{
    "course-code"           : "CIS 260",
    "course-name"           : "Database Management",
    "school"                : "JCCC",
    "course-catalog-url"    : "http://catalog.jccc.edu/coursedescriptions/cis/#CIS_260",
    "course-repository"     : ""
}
