{
    "course-code"           : "CS 134",
    "course-name"           : "Programming Fundamentals",
    "school"                : "JCCC",
    "course-catalog-url"    : "http://catalog.jccc.edu/coursedescriptions/cs/#CS_134",
    "course-repository"     : "https://bitbucket.org/rachelsteaching/cs134-programming-fundamentals"
}
