{
    "course-code"           : "CS 211",
    "course-name"           : "Discrete Structures II",
    "school"                : "JCCC",
    "course-catalog-url"    : "http://catalog.jccc.edu/coursedescriptions/cs/#CS_211",
    "course-repository"     : "https://bitbucket.org/rachelsteaching/discrete-structures/src/gh-pages/"
}
