{
    "base-url"      : "http://edu.moosader.com",
    "instructor"    : "Rachel Singh",
    "about"         : "I am a software developer and teacher in the Kansas City area. I received my associate's degree in computer science from MCCKC in 2006, and my bachelor's in computer science from UMKC in 2009. Since then, I have worked in the KC area as a web developer, software developer, and as an independent game developer. I currently work as an instructor at Johnson County Community College, and I'm building my startup, <a href='http://www.moosader.com/'>Moosader</a>.",
    "emails"        : [
        "rsingh13@jccc.edu",
        "rjmfff@mail.umkc.edu"
    ],
    "phones"        : [
        "(913) 999-8271"
    ],
    "social-media"  : [
        { "name" : "LinkedIn", "url" : "https://www.linkedin.com/in/racheljmorris" }
    ],
    "additional-resources" : {
        "Tools" : [
            { "name" : "Discrete Math Visualizations", "description" : "Visualizations and interactive webapps for Discrete Math and other classes.", "url" : "http://edu2.moosader.com/visualizations/" },
            { "name" : "cuTEST unit test framework", "description" : "This is my C++ testing framework that I use with C++ programming assignments to provide students with a way to validate their work as they go, rather than turning in something that they're not sure will actually work.", "url" : "https://bitbucket.org/rachelsteaching/cutest/src/master/" },
            { "name" : "Data Generator", "description" : "Plaintext resource files and scripts to generate data for various programming assignments.", "url" : "https://bitbucket.org/rachelsteaching/data-generator/src" },
            { "name" : "bediLMS", "description" : "An open source, programmable LMS for more efficient class management.", "url" : "https://bitbucket.org/rachelsteaching/bedilms/src/master/" }
        ],
        "Resources" : [
        ],
        "Links" : [
            { "name" : "Beginner's Guide to Game Programming (video series)",   "description" : "A video series on game programming using C++ and SDL", "url" : "https://www.youtube.com/playlist?list=PL3A4F71D0B9994FC1" },
            { "name" : "Introduction to Mobile Game Development",               "description" : "A written set of lessons for an after-school class I taught about game development", "url" : "http://www.moosader.com/learn/introduction-to-mobile-game-development/" },
            { "name" : "Game Design Merit Badge workshop using Scratch - BSA",  "description" : "A written lesson on Scratch I made for a BSA Game Design merit badge workshop", "url" : "http://www.moosader.com/learn/boy-scouts-of-america-game-design-merit-badge/" },
            { "name" : "Introduction to Esperanto (video)",                     "description" : "An introductory video lesson on the Esperanto language", "url" : "https://www.youtube.com/watch?v=kZA3gUBQy2M&t=530s" },
            { "name" : "Fantazio de Esperanto",                                 "description" : "An app for learning basic Esperanto vocabulary", "url" : "https://play.google.com/store/apps/details?id=com.Moosader.MiaAmiko" },
            { "name" : "Introduction to Source Control (video)",                "description" : "An introduction to what source control is and why you should use it", "url" : "https://www.youtube.com/watch?v=K0mgc3efx-A" },
            { "name" : "Rachel's Discrete Math Course",                         "description" : "Lecture videos from CS210 and CS 211", "url" : "https://www.youtube.com/playlist?list=PL9Kj-MdBMaPD2K84_pgO7S4--7ExvIvhn" },
            { "name" : "Rachel's C++ Course",                                   "description" : "Lecture videos from CS201", "url" : "https://www.youtube.com/playlist?list=PL9Kj-MdBMaPCGax8tHwi4QgsZRbyK7n58" }
        ]
    }
}
